%YAML 1.1
%TAG !u! tag:unity3d.com,2011:
--- !u!114 &11400000
MonoBehaviour:
  m_ObjectHideFlags: 0
  m_CorrespondingSourceObject: {fileID: 0}
  m_PrefabInstance: {fileID: 0}
  m_PrefabAsset: {fileID: 0}
  m_GameObject: {fileID: 0}
  m_Enabled: 1
  m_EditorHideFlags: 0
  m_Script: {fileID: 11500000, guid: be5eaa99efdc4a4ca4948d86192977f5, type: 3}
  m_Name: Level_1
  m_EditorClassIdentifier: 
  _Conditions:
    _TimeLimitSec: 90
    _RewardsForBoxes:
    - _Boxes: 1
      _Rewards:
      - _Valuable: {fileID: 11400000, guid: 51edf789ad2cda84592e1a2ed3325b3b, type: 2}
        _Count: 1
    - _Boxes: 2
      _Rewards:
      - _Valuable: {fileID: 11400000, guid: 51edf789ad2cda84592e1a2ed3325b3b, type: 2}
        _Count: 2
    - _Boxes: 3
      _Rewards:
      - _Valuable: {fileID: 11400000, guid: 51edf789ad2cda84592e1a2ed3325b3b, type: 2}
        _Count: 3
  _TransporterConfig:
    _Speed:
      _SpeedType: 0
      _ConstSpeed:
        _Speed: 1
      _CurvedSpeed:
        _SpeedByTime:
          serializedVersion: 2
          m_Curve: []
          m_PreInfinity: 2
          m_PostInfinity: 2
          m_RotationOrder: 4
      _AcceleratedSpeed:
        _StartSpeed: 0
        _Acceleration: 0
        _MinSpeed: 0
        _MaxSpeed: 0
    _Direction:
      _Direction: {x: -1, y: 0}
  _Items:
    _Items:
    - _Item: {fileID: 11400000, guid: 8be0d1af8b0366f4092941cc162f215d, type: 2}
      _DistanceFromStart: 0
    - _Item: {fileID: 11400000, guid: 49c0252ae97a1164e9b4fe3e10f285b9, type: 2}
      _DistanceFromStart: 2
    - _Item: {fileID: 11400000, guid: e998d6714ec46c14b9b0c5790f383eac, type: 2}
      _DistanceFromStart: 4
    - _Item: {fileID: 11400000, guid: 257c6d138bb87014486a52ef4050ef81, type: 2}
      _DistanceFromStart: 6
    - _Item: {fileID: 11400000, guid: e998d6714ec46c14b9b0c5790f383eac, type: 2}
      _DistanceFromStart: 8
    - _Item: {fileID: 11400000, guid: 7aa0d8cec614df84cae4e78be3662354, type: 2}
      _DistanceFromStart: 10
    - _Item: {fileID: 11400000, guid: 49c0252ae97a1164e9b4fe3e10f285b9, type: 2}
      _DistanceFromStart: 12
    - _Item: {fileID: 11400000, guid: 8be0d1af8b0366f4092941cc162f215d, type: 2}
      _DistanceFromStart: 14
    - _Item: {fileID: 11400000, guid: 7aa0d8cec614df84cae4e78be3662354, type: 2}
      _DistanceFromStart: 16
    - _Item: {fileID: 11400000, guid: 257c6d138bb87014486a52ef4050ef81, type: 2}
      _DistanceFromStart: 18
    - _Item: {fileID: 11400000, guid: e998d6714ec46c14b9b0c5790f383eac, type: 2}
      _DistanceFromStart: 20
    - _Item: {fileID: 11400000, guid: 257c6d138bb87014486a52ef4050ef81, type: 2}
      _DistanceFromStart: 22
    - _Item: {fileID: 11400000, guid: 7aa0d8cec614df84cae4e78be3662354, type: 2}
      _DistanceFromStart: 24
    - _Item: {fileID: 11400000, guid: 257c6d138bb87014486a52ef4050ef81, type: 2}
      _DistanceFromStart: 26
    - _Item: {fileID: 11400000, guid: e998d6714ec46c14b9b0c5790f383eac, type: 2}
      _DistanceFromStart: 28
    - _Item: {fileID: 11400000, guid: 49c0252ae97a1164e9b4fe3e10f285b9, type: 2}
      _DistanceFromStart: 30
    - _Item: {fileID: 11400000, guid: 49c0252ae97a1164e9b4fe3e10f285b9, type: 2}
      _DistanceFromStart: 32
    - _Item: {fileID: 11400000, guid: 8be0d1af8b0366f4092941cc162f215d, type: 2}
      _DistanceFromStart: 34
    - _Item: {fileID: 11400000, guid: 49c0252ae97a1164e9b4fe3e10f285b9, type: 2}
      _DistanceFromStart: 36
    - _Item: {fileID: 11400000, guid: e998d6714ec46c14b9b0c5790f383eac, type: 2}
      _DistanceFromStart: 38
  _Boxes:
    _Boxes:
    - _TargetItem: {fileID: 11400000, guid: 8be0d1af8b0366f4092941cc162f215d, type: 2}
      _Capacity: 3
      _Position: {x: -2, y: -3.2}
    - _TargetItem: {fileID: 11400000, guid: 49c0252ae97a1164e9b4fe3e10f285b9, type: 2}
      _Capacity: 4
      _Position: {x: 0, y: -3.2}
    - _TargetItem: {fileID: 11400000, guid: e998d6714ec46c14b9b0c5790f383eac, type: 2}
      _Capacity: 5
      _Position: {x: 2, y: -3.2}
  _Falling:
    _Speed:
      _SpeedType: 0
      _ConstSpeed:
        _Speed: 4
      _CurvedSpeed:
        _SpeedByTime:
          serializedVersion: 2
          m_Curve: []
          m_PreInfinity: 2
          m_PostInfinity: 2
          m_RotationOrder: 4
      _AcceleratedSpeed:
        _StartSpeed: 0
        _Acceleration: 0
        _MinSpeed: 0
        _MaxSpeed: 0
    _Direction:
      _Direction: {x: 0, y: -1}
