%YAML 1.1
%TAG !u! tag:unity3d.com,2011:
--- !u!114 &11400000
MonoBehaviour:
  m_ObjectHideFlags: 0
  m_CorrespondingSourceObject: {fileID: 0}
  m_PrefabInstance: {fileID: 0}
  m_PrefabAsset: {fileID: 0}
  m_GameObject: {fileID: 0}
  m_Enabled: 1
  m_EditorHideFlags: 0
  m_Script: {fileID: 11500000, guid: ac9a15383a3b4601b3cb022dab29faf7, type: 3}
  m_Name: 3_Task
  m_EditorClassIdentifier: 
  _Id: task_3
  _Title: "\u0422\u0440\u0435\u0442\u044C\u0435 \u0437\u0430\u0434\u0430\u043D\u0438\u0435"
  _Description: "\u041F\u043E\u044F\u0432\u043B\u044F\u0435\u0442\u0441\u044F \u043F\u043E\u0441\u043B\u0435
    \u0432\u0442\u043E\u0440\u044B\u0445 \u0430 \u0438 \u0431"
  _Icon: {fileID: 21300000, guid: b7de90d24b323264ea726ffd3550479f, type: 3}
  _Cost:
    _Valuable: {fileID: 11400000, guid: 51edf789ad2cda84592e1a2ed3325b3b, type: 2}
    _Count: 2
  _Rewards: []
  _NextTasks:
  - {fileID: 11400000, guid: 0436f8915b02df14d9b51ecb2b743fff, type: 2}
  _PreviousTasks:
  - {fileID: 11400000, guid: 9940e022d309e1c46b7ddfa34242b969, type: 2}
  - {fileID: 11400000, guid: e336865a4f90321498b90335657599a6, type: 2}
